SOURCES/VHDL/tb_adatiox4.vcd
$date
  Mon Sep 19 20:31:24 2016
$end
$version
  GHDL v0
$end
$timescale
  1 fs
$end
$var reg 1 ! clk $end
$var reg 1 " tdmin1 $end
$var reg 1 # bclk $end
$var reg 1 $ wclk $end
$var reg 1 % rst $end
$var reg 256 & tdmpattern[255:0] $end
$var reg 1 ' tdmsig $end
$var reg 256 ( lasttdmin[255:0] $end
$scope module uut_adatiox4 $end
$var reg 1 ) clk $end
$var reg 1 * tdmin1 $end
$var reg 1 + bclk $end
$var reg 1 , wclk $end
$var reg 1 - rst $end
$var integer 32 . bclk_cnt $end
$var integer 32 / wclk_cnt $end
$var reg 9 0 icntr[8:0] $end
$var reg 1 1 ce12m $end
$var reg 1 2 ce48k $end
$var reg 24 3 chn1[23:0] $end
$var reg 24 4 chn2[23:0] $end
$var reg 24 5 chn3[23:0] $end
$var reg 24 6 chn4[23:0] $end
$var reg 24 7 chn5[23:0] $end
$var reg 24 8 chn6[23:0] $end
$var reg 24 9 chn7[23:0] $end
$var reg 24 : chn8[23:0] $end
$scope module tdmrx1 $end
$var reg 1 ; clk $end
$var reg 1 < rst $end
$var reg 1 = ce12m $end
$var reg 1 > ce48k $end
$var reg 1 ? tdmin $end
$var reg 24 @ chn1[23:0] $end
$var reg 24 A chn2[23:0] $end
$var reg 24 B chn3[23:0] $end
$var reg 24 C chn4[23:0] $end
$var reg 24 D chn5[23:0] $end
$var reg 24 E chn6[23:0] $end
$var reg 24 F chn7[23:0] $end
$var reg 24 G chn8[23:0] $end
$var reg 256 H shiftreg[255:0] $end
$upscope $end
$upscope $end
$enddefinitions $end
#0
1!
0"
0#
0$
1%
b1000000000000000000000010000000010000000000000000000001100000000100000000000000000000101000000001000000000000000000001110000000010000000000000000000100100000000100000000000000000001011000000001000000000000000000011010000000010000000000000000000111100000000 &
0'
b1000000000000000000000010000000010000000000000000000000100000000100000000000000000000001000000001000000000000000000000010000000010000000000000000000000100000000100000000000000000000001000000001000000000000000000000010000000010000000000000000000000100000000 (
1)
0*
0+
0,
1-
b0 .
b0 /
b000000000 0
01
02
b000000000000000000000000 3
b000000000000000000000000 4
b000000000000000000000000 5
b000000000000000000000000 6
b000000000000000000000000 7
b000000000000000000000000 8
b000000000000000000000000 9
b000000000000000000000000 :
1;
1<
0=
0>
0?
b000000000000000000000000 @
b000000000000000000000000 A
b000000000000000000000000 B
b000000000000000000000000 C
b000000000000000000000000 D
b000000000000000000000000 E
b000000000000000000000000 F
b000000000000000000000000 G
b0000000000000000000000000000000000000000000000000000000000000000000000000000000000000000000000000000000000000000000000000000000000000000000000000000000000000000000000000000000000000000000000000000000000000000000000000000000000000000000000000000000000000000 H
#500000
0!
0)
0;
#1000000
1!
1)
1;
#1500000
0!
0)
0;
#2000000
1!
1)
1;
#2500000
0!
0)
0;
#3000000
1!
1)
1;
#3500000
0!
0)
0;
#4000000
1!
1)
1;
#4500000
0!
0)
0;
#5000000
1!
1)
1;
#5500000
0!
0)
0;
#6000000
1!
1)
1;
#6500000
0!
0)
0;
#7000000
1!
1)
1;
#7500000
0!
0)
0;
#8000000
1!
1)
1;
#8500000
0!
0)
0;
#9000000
1!
1)
1;
#9500000
0!
0)
0;
#10000000
1!
1"
1#
1$
0%
b0000000000000000000000100000000100000000000000000000011000000001000000000000000000001010000000010000000000000000000011100000000100000000000000000001001000000001000000000000000000010110000000010000000000000000000110100000000100000000000000000001111000000000 &
1'
1)
1*
1+
1,
0-
b1 .
b1 /
b000000001 0
1;
0<
1?
#10500000
0!
0)
0;
#11000000
1!
0#
1)
0+
b0 .
b10 /
b000000010 0
11
1;
1=
#11500000
0!
0)
0;
#12000000
1!
0"
1#
b0000000000000000000001000000001000000000000000000000110000000010000000000000000000010100000000100000000000000000000111000000001000000000000000000010010000000010000000000000000000101100000000100000000000000000001101000000001000000000000000000011110000000000 &
0'
1)
0*
1+
b1 .
b11 /
b000000011 0
01
1;
0=
0?
b0000000000000000000000000000000000000000000000000000000000000000000000000000000000000000000000000000000000000000000000000000000000000000000000000000000000000000000000000000000000000000000000000000000000000000000000000000000000000000000000000000000000000001 H
#12500000
0!
0)
0;
#13000000
1!
0#
1)
0+
b0 .
b100 /
b000000100 0
11
1;
1=
#13500000
0!
0)
0;
#14000000
1!
1#
b0000000000000000000010000000010000000000000000000001100000000100000000000000000000101000000001000000000000000000001110000000010000000000000000000100100000000100000000000000000001011000000001000000000000000000011010000000010000000000000000000111100000000000 &
1)
1+
b1 .
b101 /
b000000101 0
01
1;
0=
b0000000000000000000000000000000000000000000000000000000000000000000000000000000000000000000000000000000000000000000000000000000000000000000000000000000000000000000000000000000000000000000000000000000000000000000000000000000000000000000000000000000000000010 H
#14500000
0!
0)
0;
#15000000
1!
0#
1)
0+
b0 .
b110 /
b000000110 0
11
1;
1=
#15500000
0!
0)
0;
#16000000
1!
1#
b0000000000000000000100000000100000000000000000000011000000001000000000000000000001010000000010000000000000000000011100000000100000000000000000001001000000001000000000000000000010110000000010000000000000000000110100000000100000000000000000001111000000000000 &
1)
1+
b1 .
b111 /
b000000111 0
01
1;
0=
b0000000000000000000000000000000000000000000000000000000000000000000000000000000000000000000000000000000000000000000000000000000000000000000000000000000000000000000000000000000000000000000000000000000000000000000000000000000000000000000000000000000000000100 H
#16500000
0!
0)
0;
#17000000
1!
0#
1)
0+
b0 .
b1000 /
b000001000 0
11
1;
1=
#17500000
0!
0)
0;
#18000000
1!
1#
b0000000000000000001000000001000000000000000000000110000000010000000000000000000010100000000100000000000000000000111000000001000000000000000000010010000000010000000000000000000101100000000100000000000000000001101000000001000000000000000000011110000000000000 &
1)
1+
b1 .
b1001 /
b000001001 0
01
1;
0=
b0000000000000000000000000000000000000000000000000000000000000000000000000000000000000000000000000000000000000000000000000000000000000000000000000000000000000000000000000000000000000000000000000000000000000000000000000000000000000000000000000000000000001000 H
#18500000
0!
0)
0;
#19000000
1!
0#
1)
0+
b0 .
b1010 /
b000001010 0
11
1;
1=
#19500000
0!
0)
0;
#20000000
1!
1#
b0000000000000000010000000010000000000000000000001100000000100000000000000000000101000000001000000000000000000001110000000010000000000000000000100100000000100000000000000000001011000000001000000000000000000011010000000010000000000000000000111100000000000000 &
1)
1+
b1 .
b1011 /
b000001011 0
01
1;
0=
b0000000000000000000000000000000000000000000000000000000000000000000000000000000000000000000000000000000000000000000000000000000000000000000000000000000000000000000000000000000000000000000000000000000000000000000000000000000000000000000000000000000000010000 H
#20500000
0!
0)
0;
#21000000
1!
0#
1)
0+
b0 .
b1100 /
b000001100 0
11
1;
1=
#21500000
0!
0)
0;
#22000000
1!
1#
b0000000000000000100000000100000000000000000000011000000001000000000000000000001010000000010000000000000000000011100000000100000000000000000001001000000001000000000000000000010110000000010000000000000000000110100000000100000000000000000001111000000000000000 &
1)
1+
b1 .
b1101 /
b000001101 0
01
1;
0=
b0000000000000000000000000000000000000000000000000000000000000000000000000000000000000000000000000000000000000000000000000000000000000000000000000000000000000000000000000000000000000000000000000000000000000000000000000000000000000000000000000000000000100000 H
#22500000
0!
0)
0;
#23000000
1!
0#
1)
0+
b0 .
b1110 /
b000001110 0
11
1;
1=
#23500000
0!
0)
0;
#24000000
1!
1#
b0000000000000001000000001000000000000000000000110000000010000000000000000000010100000000100000000000000000000111000000001000000000000000000010010000000010000000000000000000101100000000100000000000000000001101000000001000000000000000000011110000000000000000 &
1)
1+
b1 .
b1111 /
b000001111 0
01
1;
0=
b0000000000000000000000000000000000000000000000000000000000000000000000000000000000000000000000000000000000000000000000000000000000000000000000000000000000000000000000000000000000000000000000000000000000000000000000000000000000000000000000000000000001000000 H
#24500000
0!
0)
0;
#25000000
1!
0#
1)
0+
b0 .
b10000 /
b000010000 0
11
1;
1=
#25500000
0!
0)
0;
#26000000
1!
1#
b0000000000000010000000010000000000000000000001100000000100000000000000000000101000000001000000000000000000001110000000010000000000000000000100100000000100000000000000000001011000000001000000000000000000011010000000010000000000000000000111100000000000000000 &
1)
1+
b1 .
b10001 /
b000010001 0
01
1;
0=
b0000000000000000000000000000000000000000000000000000000000000000000000000000000000000000000000000000000000000000000000000000000000000000000000000000000000000000000000000000000000000000000000000000000000000000000000000000000000000000000000000000000010000000 H
#26500000
0!
0)
0;
#27000000
1!
0#
1)
0+
b0 .
b10010 /
b000010010 0
11
1;
1=
#27500000
0!
0)
0;
#28000000
1!
1#
b0000000000000100000000100000000000000000000011000000001000000000000000000001010000000010000000000000000000011100000000100000000000000000001001000000001000000000000000000010110000000010000000000000000000110100000000100000000000000000001111000000000000000000 &
1)
1+
b1 .
b10011 /
b000010011 0
01
1;
0=
b0000000000000000000000000000000000000000000000000000000000000000000000000000000000000000000000000000000000000000000000000000000000000000000000000000000000000000000000000000000000000000000000000000000000000000000000000000000000000000000000000000000100000000 H
#28500000
0!
0)
0;
#29000000
1!
0#
1)
0+
b0 .
b10100 /
b000010100 0
11
1;
1=
#29500000
0!
0)
0;
#30000000
1!
1#
b0000000000001000000001000000000000000000000110000000010000000000000000000010100000000100000000000000000000111000000001000000000000000000010010000000010000000000000000000101100000000100000000000000000001101000000001000000000000000000011110000000000000000000 &
1)
1+
b1 .
b10101 /
b000010101 0
01
1;
0=
b0000000000000000000000000000000000000000000000000000000000000000000000000000000000000000000000000000000000000000000000000000000000000000000000000000000000000000000000000000000000000000000000000000000000000000000000000000000000000000000000000000001000000000 H
#30500000
0!
0)
0;
#31000000
1!
0#
1)
0+
b0 .
b10110 /
b000010110 0
11
1;
1=
#31500000
0!
0)
0;
#32000000
1!
1#
b0000000000010000000010000000000000000000001100000000100000000000000000000101000000001000000000000000000001110000000010000000000000000000100100000000100000000000000000001011000000001000000000000000000011010000000010000000000000000000111100000000000000000000 &
1)
1+
b1 .
b10111 /
b000010111 0
01
1;
0=
b0000000000000000000000000000000000000000000000000000000000000000000000000000000000000000000000000000000000000000000000000000000000000000000000000000000000000000000000000000000000000000000000000000000000000000000000000000000000000000000000000000010000000000 H
#32500000
0!
0)
0;
#33000000
1!
0#
1)
0+
b0 .
b11000 /
b000011000 0
11
1;
1=
#33500000
0!
0)
0;
#34000000
1!
1#
b0000000000100000000100000000000000000000011000000001000000000000000000001010000000010000000000000000000011100000000100000000000000000001001000000001000000000000000000010110000000010000000000000000000110100000000100000000000000000001111000000000000000000000 &
1)
1+
b1 .
b11001 /
b000011001 0
01
1;
0=
b0000000000000000000000000000000000000000000000000000000000000000000000000000000000000000000000000000000000000000000000000000000000000000000000000000000000000000000000000000000000000000000000000000000000000000000000000000000000000000000000000000100000000000 H
#34500000
0!
0)
0;
#35000000
1!
0#
1)
0+
b0 .
b11010 /
b000011010 0
11
1;
1=
#35500000
0!
0)
0;
#36000000
1!
1#
b0000000001000000001000000000000000000000110000000010000000000000000000010100000000100000000000000000000111000000001000000000000000000010010000000010000000000000000000101100000000100000000000000000001101000000001000000000000000000011110000000000000000000000 &
1)
1+
b1 .
b11011 /
b000011011 0
01
1;
0=
b0000000000000000000000000000000000000000000000000000000000000000000000000000000000000000000000000000000000000000000000000000000000000000000000000000000000000000000000000000000000000000000000000000000000000000000000000000000000000000000000000001000000000000 H
#36500000
0!
0)
0;
#37000000
1!
0#
1)
0+
b0 .
b11100 /
b000011100 0
11
1;
1=
#37500000
0!
0)
0;
#38000000
1!
1#
b0000000010000000010000000000000000000001100000000100000000000000000000101000000001000000000000000000001110000000010000000000000000000100100000000100000000000000000001011000000001000000000000000000011010000000010000000000000000000111100000000000000000000000 &
1)
1+
b1 .
b11101 /
b000011101 0
01
1;
0=
b0000000000000000000000000000000000000000000000000000000000000000000000000000000000000000000000000000000000000000000000000000000000000000000000000000000000000000000000000000000000000000000000000000000000000000000000000000000000000000000000000010000000000000 H
#38500000
0!
0)
0;
#39000000
1!
0#
1)
0+
b0 .
b11110 /
b000011110 0
11
1;
1=
#39500000
0!
0)
0;
#40000000
1!
1#
b0000000100000000100000000000000000000011000000001000000000000000000001010000000010000000000000000000011100000000100000000000000000001001000000001000000000000000000010110000000010000000000000000000110100000000100000000000000000001111000000000000000000000000 &
1)
1+
b1 .
b11111 /
b000011111 0
01
1;
0=
b0000000000000000000000000000000000000000000000000000000000000000000000000000000000000000000000000000000000000000000000000000000000000000000000000000000000000000000000000000000000000000000000000000000000000000000000000000000000000000000000000100000000000000 H
#40500000
0!
0)
0;
#41000000
1!
0#
1)
0+
b0 .
b100000 /
b000100000 0
11
1;
1=
#41500000
0!
0)
0;
#42000000
1!
1#
b0000001000000001000000000000000000000110000000010000000000000000000010100000000100000000000000000000111000000001000000000000000000010010000000010000000000000000000101100000000100000000000000000001101000000001000000000000000000011110000000000000000000000000 &
1)
1+
b1 .
b100001 /
b000100001 0
01
1;
0=
b0000000000000000000000000000000000000000000000000000000000000000000000000000000000000000000000000000000000000000000000000000000000000000000000000000000000000000000000000000000000000000000000000000000000000000000000000000000000000000000000001000000000000000 H
#42500000
0!
0)
0;
#43000000
1!
0#
1)
0+
b0 .
b100010 /
b000100010 0
11
1;
1=
#43500000
0!
0)
0;
#44000000
1!
1#
b0000010000000010000000000000000000001100000000100000000000000000000101000000001000000000000000000001110000000010000000000000000000100100000000100000000000000000001011000000001000000000000000000011010000000010000000000000000000111100000000000000000000000000 &
1)
1+
b1 .
b100011 /
b000100011 0
01
1;
0=
b0000000000000000000000000000000000000000000000000000000000000000000000000000000000000000000000000000000000000000000000000000000000000000000000000000000000000000000000000000000000000000000000000000000000000000000000000000000000000000000000010000000000000000 H
#44500000
0!
0)
0;
#45000000
1!
0#
1)
0+
b0 .
b100100 /
b000100100 0
11
1;
1=
#45500000
0!
0)
0;
#46000000
1!
1#
b0000100000000100000000000000000000011000000001000000000000000000001010000000010000000000000000000011100000000100000000000000000001001000000001000000000000000000010110000000010000000000000000000110100000000100000000000000000001111000000000000000000000000000 &
1)
1+
b1 .
b100101 /
b000100101 0
01
1;
0=
b0000000000000000000000000000000000000000000000000000000000000000000000000000000000000000000000000000000000000000000000000000000000000000000000000000000000000000000000000000000000000000000000000000000000000000000000000000000000000000000000100000000000000000 H
#46500000
0!
0)
0;
#47000000
1!
0#
1)
0+
b0 .
b100110 /
b000100110 0
11
1;
1=
#47500000
0!
0)
0;
#48000000
1!
1#
b0001000000001000000000000000000000110000000010000000000000000000010100000000100000000000000000000111000000001000000000000000000010010000000010000000000000000000101100000000100000000000000000001101000000001000000000000000000011110000000000000000000000000000 &
1)
1+
b1 .
b100111 /
b000100111 0
01
1;
0=
b0000000000000000000000000000000000000000000000000000000000000000000000000000000000000000000000000000000000000000000000000000000000000000000000000000000000000000000000000000000000000000000000000000000000000000000000000000000000000000000001000000000000000000 H
#48500000
0!
0)
0;
#49000000
1!
0#
1)
0+
b0 .
b101000 /
b000101000 0
11
1;
1=
#49500000
0!
0)
0;
#50000000
1!
1#
b0010000000010000000000000000000001100000000100000000000000000000101000000001000000000000000000001110000000010000000000000000000100100000000100000000000000000001011000000001000000000000000000011010000000010000000000000000000111100000000000000000000000000000 &
1)
1+
b1 .
b101001 /
b000101001 0
01
1;
0=
b0000000000000000000000000000000000000000000000000000000000000000000000000000000000000000000000000000000000000000000000000000000000000000000000000000000000000000000000000000000000000000000000000000000000000000000000000000000000000000000010000000000000000000 H
#50500000
0!
0)
0;
#51000000
1!
0#
1)
0+
b0 .
b101010 /
b000101010 0
11
1;
1=
#51500000
0!
0)
0;
#52000000
1!
1#
b0100000000100000000000000000000011000000001000000000000000000001010000000010000000000000000000011100000000100000000000000000001001000000001000000000000000000010110000000010000000000000000000110100000000100000000000000000001111000000000000000000000000000000 &
1)
1+
b1 .
b101011 /
b000101011 0
01
1;
0=
b0000000000000000000000000000000000000000000000000000000000000000000000000000000000000000000000000000000000000000000000000000000000000000000000000000000000000000000000000000000000000000000000000000000000000000000000000000000000000000000100000000000000000000 H
#52500000
0!
0)
0;
#53000000
1!
0#
1)
0+
b0 .
b101100 /
b000101100 0
11
1;
1=
#53500000
0!
0)
0;
#54000000
1!
1#
b1000000001000000000000000000000110000000010000000000000000000010100000000100000000000000000000111000000001000000000000000000010010000000010000000000000000000101100000000100000000000000000001101000000001000000000000000000011110000000000000000000000000000000 &
1)
1+
b1 .
b101101 /
b000101101 0
01
1;
0=
b0000000000000000000000000000000000000000000000000000000000000000000000000000000000000000000000000000000000000000000000000000000000000000000000000000000000000000000000000000000000000000000000000000000000000000000000000000000000000000001000000000000000000000 H
#54500000
0!
0)
0;
#55000000
1!
0#
1)
0+
b0 .
b101110 /
b000101110 0
11
1;
1=
#55500000
0!
0)
0;
#56000000
1!
1"
1#
b0000000010000000000000000000001100000000100000000000000000000101000000001000000000000000000001110000000010000000000000000000100100000000100000000000000000001011000000001000000000000000000011010000000010000000000000000000111100000000000000000000000000000000 &
1'
1)
1*
1+
b1 .
b101111 /
b000101111 0
01
1;
0=
1?
b0000000000000000000000000000000000000000000000000000000000000000000000000000000000000000000000000000000000000000000000000000000000000000000000000000000000000000000000000000000000000000000000000000000000000000000000000000000000000000010000000000000000000000 H
#56500000
0!
0)
0;
#57000000
1!
0#
1)
0+
b0 .
b110000 /
b000110000 0
11
1;
1=
#57500000
0!
0)
0;
#58000000
1!
0"
1#
b0000000100000000000000000000011000000001000000000000000000001010000000010000000000000000000011100000000100000000000000000001001000000001000000000000000000010110000000010000000000000000000110100000000100000000000000000001111000000000000000000000000000000000 &
0'
1)
0*
1+
b1 .
b110001 /
b000110001 0
01
1;
0=
0?
b0000000000000000000000000000000000000000000000000000000000000000000000000000000000000000000000000000000000000000000000000000000000000000000000000000000000000000000000000000000000000000000000000000000000000000000000000000000000000000100000000000000000000001 H
#58500000
0!
0)
0;
#59000000
1!
0#
1)
0+
b0 .
b110010 /
b000110010 0
11
1;
1=
#59500000
0!
0)
0;
#60000000
1!
1#
b0000001000000000000000000000110000000010000000000000000000010100000000100000000000000000000111000000001000000000000000000010010000000010000000000000000000101100000000100000000000000000001101000000001000000000000000000011110000000000000000000000000000000000 &
1)
1+
b1 .
b110011 /
b000110011 0
01
1;
0=
b0000000000000000000000000000000000000000000000000000000000000000000000000000000000000000000000000000000000000000000000000000000000000000000000000000000000000000000000000000000000000000000000000000000000000000000000000000000000000001000000000000000000000010 H
#60500000
0!
0)
0;
#61000000
1!
0#
1)
0+
b0 .
b110100 /
b000110100 0
11
1;
1=
#61500000
0!
0)
0;
#62000000
1!
1#
b0000010000000000000000000001100000000100000000000000000000101000000001000000000000000000001110000000010000000000000000000100100000000100000000000000000001011000000001000000000000000000011010000000010000000000000000000111100000000000000000000000000000000000 &
1)
1+
b1 .
b110101 /
b000110101 0
01
1;
0=
b0000000000000000000000000000000000000000000000000000000000000000000000000000000000000000000000000000000000000000000000000000000000000000000000000000000000000000000000000000000000000000000000000000000000000000000000000000000000000010000000000000000000000100 H
#62500000
0!
0)
0;
#63000000
1!
0#
1)
0+
b0 .
b110110 /
b000110110 0
11
1;
1=
#63500000
0!
0)
0;
#64000000
1!
1#
b0000100000000000000000000011000000001000000000000000000001010000000010000000000000000000011100000000100000000000000000001001000000001000000000000000000010110000000010000000000000000000110100000000100000000000000000001111000000000000000000000000000000000000 &
1)
1+
b1 .
b110111 /
b000110111 0
01
1;
0=
b0000000000000000000000000000000000000000000000000000000000000000000000000000000000000000000000000000000000000000000000000000000000000000000000000000000000000000000000000000000000000000000000000000000000000000000000000000000000000100000000000000000000001000 H
#64500000
0!
0)
0;
#65000000
1!
0#
1)
0+
b0 .
b111000 /
b000111000 0
11
1;
1=
#65500000
0!
0)
0;
#66000000
1!
1#
b0001000000000000000000000110000000010000000000000000000010100000000100000000000000000000111000000001000000000000000000010010000000010000000000000000000101100000000100000000000000000001101000000001000000000000000000011110000000000000000000000000000000000000 &
1)
1+
b1 .
b111001 /
b000111001 0
01
1;
0=
b0000000000000000000000000000000000000000000000000000000000000000000000000000000000000000000000000000000000000000000000000000000000000000000000000000000000000000000000000000000000000000000000000000000000000000000000000000000000001000000000000000000000010000 H
#66500000
0!
0)
0;
#67000000
1!
0#
1)
0+
b0 .
b111010 /
b000111010 0
11
1;
1=
#67500000
0!
0)
0;
#68000000
1!
1#
b0010000000000000000000001100000000100000000000000000000101000000001000000000000000000001110000000010000000000000000000100100000000100000000000000000001011000000001000000000000000000011010000000010000000000000000000111100000000000000000000000000000000000000 &
1)
1+
b1 .
b111011 /
b000111011 0
01
1;
0=
b0000000000000000000000000000000000000000000000000000000000000000000000000000000000000000000000000000000000000000000000000000000000000000000000000000000000000000000000000000000000000000000000000000000000000000000000000000000000010000000000000000000000100000 H
#68500000
0!
0)
0;
#69000000
1!
0#
1)
0+
b0 .
b111100 /
b000111100 0
11
1;
1=
#69500000
0!
0)
0;
#70000000
1!
1#
b0100000000000000000000011000000001000000000000000000001010000000010000000000000000000011100000000100000000000000000001001000000001000000000000000000010110000000010000000000000000000110100000000100000000000000000001111000000000000000000000000000000000000000 &
1)
1+
b1 .
b111101 /
b000111101 0
01
1;
0=
b0000000000000000000000000000000000000000000000000000000000000000000000000000000000000000000000000000000000000000000000000000000000000000000000000000000000000000000000000000000000000000000000000000000000000000000000000000000000100000000000000000000001000000 H
#70500000
0!
0)
0;
#71000000
1!
0#
1)
0+
b0 .
b111110 /
b000111110 0
11
1;
1=
#71500000
0!
0)
0;
#72000000
1!
1#
b1000000000000000000000110000000010000000000000000000010100000000100000000000000000000111000000001000000000000000000010010000000010000000000000000000101100000000100000000000000000001101000000001000000000000000000011110000000000000000000000000000000000000000 &
1)
1+
b1 .
b111111 /
b000111111 0
01
1;
0=
b0000000000000000000000000000000000000000000000000000000000000000000000000000000000000000000000000000000000000000000000000000000000000000000000000000000000000000000000000000000000000000000000000000000000000000000000000000000001000000000000000000000010000000 H
#72500000
0!
0)
0;
#73000000
1!
0#
1)
0+
b0 .
b1000000 /
b001000000 0
11
1;
1=
#73500000
0!
0)
0;
#74000000
1!
1"
1#
b0000000000000000000001100000000100000000000000000000101000000001000000000000000000001110000000010000000000000000000100100000000100000000000000000001011000000001000000000000000000011010000000010000000000000000000111100000000000000000000000000000000000000000 &
1'
1)
1*
1+
b1 .
b1000001 /
b001000001 0
01
1;
0=
1?
b0000000000000000000000000000000000000000000000000000000000000000000000000000000000000000000000000000000000000000000000000000000000000000000000000000000000000000000000000000000000000000000000000000000000000000000000000000000010000000000000000000000100000000 H
#74500000
0!
0)
0;
#75000000
1!
0#
1)
0+
b0 .
b1000010 /
b001000010 0
11
1;
1=
#75500000
0!
0)
0;
#76000000
1!
0"
1#
b0000000000000000000011000000001000000000000000000001010000000010000000000000000000011100000000100000000000000000001001000000001000000000000000000010110000000010000000000000000000110100000000100000000000000000001111000000000000000000000000000000000000000000 &
0'
1)
0*
1+
b1 .
b1000011 /
b001000011 0
01
1;
0=
0?
b0000000000000000000000000000000000000000000000000000000000000000000000000000000000000000000000000000000000000000000000000000000000000000000000000000000000000000000000000000000000000000000000000000000000000000000000000000000100000000000000000000001000000001 H
#76500000
0!
0)
0;
#77000000
1!
0#
1)
0+
b0 .
b1000100 /
b001000100 0
11
1;
1=
#77500000
0!
0)
0;
#78000000
1!
1#
b0000000000000000000110000000010000000000000000000010100000000100000000000000000000111000000001000000000000000000010010000000010000000000000000000101100000000100000000000000000001101000000001000000000000000000011110000000000000000000000000000000000000000000 &
1)
1+
b1 .
b1000101 /
b001000101 0
01
1;
0=
b0000000000000000000000000000000000000000000000000000000000000000000000000000000000000000000000000000000000000000000000000000000000000000000000000000000000000000000000000000000000000000000000000000000000000000000000000000001000000000000000000000010000000010 H
#78500000
0!
0)
0;
#79000000
1!
0#
1)
0+
b0 .
b1000110 /
b001000110 0
11
1;
1=
#79500000
0!
0)
0;
#80000000
1!
1#
b0000000000000000001100000000100000000000000000000101000000001000000000000000000001110000000010000000000000000000100100000000100000000000000000001011000000001000000000000000000011010000000010000000000000000000111100000000000000000000000000000000000000000000 &
1)
1+
b1 .
b1000111 /
b001000111 0
01
1;
0=
b0000000000000000000000000000000000000000000000000000000000000000000000000000000000000000000000000000000000000000000000000000000000000000000000000000000000000000000000000000000000000000000000000000000000000000000000000000010000000000000000000000100000000100 H
#80500000
0!
0)
0;
#81000000
1!
0#
1)
0+
b0 .
b1001000 /
b001001000 0
11
1;
1=
#81500000
0!
0)
0;
#82000000
1!
1#
b0000000000000000011000000001000000000000000000001010000000010000000000000000000011100000000100000000000000000001001000000001000000000000000000010110000000010000000000000000000110100000000100000000000000000001111000000000000000000000000000000000000000000000 &
1)
1+
b1 .
b1001001 /
b001001001 0
01
1;
0=
b0000000000000000000000000000000000000000000000000000000000000000000000000000000000000000000000000000000000000000000000000000000000000000000000000000000000000000000000000000000000000000000000000000000000000000000000000000100000000000000000000001000000001000 H
#82500000
0!
0)
0;
#83000000
1!
0#
1)
0+
b0 .
b1001010 /
b001001010 0
11
1;
1=
#83500000
0!
0)
0;
#84000000
1!
1#
b0000000000000000110000000010000000000000000000010100000000100000000000000000000111000000001000000000000000000010010000000010000000000000000000101100000000100000000000000000001101000000001000000000000000000011110000000000000000000000000000000000000000000000 &
1)
1+
b1 .
b1001011 /
b001001011 0
01
1;
0=
b0000000000000000000000000000000000000000000000000000000000000000000000000000000000000000000000000000000000000000000000000000000000000000000000000000000000000000000000000000000000000000000000000000000000000000000000000001000000000000000000000010000000010000 H
#84500000
0!
0)
0;
#85000000
1!
0#
1)
0+
b0 .
b1001100 /
b001001100 0
11
1;
1=
#85500000
0!
0)
0;
#86000000
1!
1#
b0000000000000001100000000100000000000000000000101000000001000000000000000000001110000000010000000000000000000100100000000100000000000000000001011000000001000000000000000000011010000000010000000000000000000111100000000000000000000000000000000000000000000000 &
1)
1+
b1 .
b1001101 /
b001001101 0
01
1;
0=
b0000000000000000000000000000000000000000000000000000000000000000000000000000000000000000000000000000000000000000000000000000000000000000000000000000000000000000000000000000000000000000000000000000000000000000000000000010000000000000000000000100000000100000 H
#86500000
0!
0)
0;
#87000000
1!
0#
1)
0+
b0 .
b1001110 /
b001001110 0
11
1;
1=
#87500000
0!
0)
0;
#88000000
1!
1#
b0000000000000011000000001000000000000000000001010000000010000000000000000000011100000000100000000000000000001001000000001000000000000000000010110000000010000000000000000000110100000000100000000000000000001111000000000000000000000000000000000000000000000000 &
1)
1+
b1 .
b1001111 /
b001001111 0
01
1;
0=
b0000000000000000000000000000000000000000000000000000000000000000000000000000000000000000000000000000000000000000000000000000000000000000000000000000000000000000000000000000000000000000000000000000000000000000000000000100000000000000000000001000000001000000 H
#88500000
0!
0)
0;
#89000000
1!
0#
1)
0+
b0 .
b1010000 /
b001010000 0
11
1;
1=
#89500000
0!
0)
0;
#90000000
1!
1#
b0000000000000110000000010000000000000000000010100000000100000000000000000000111000000001000000000000000000010010000000010000000000000000000101100000000100000000000000000001101000000001000000000000000000011110000000000000000000000000000000000000000000000000 &
1)
1+
b1 .
b1010001 /
b001010001 0
01
1;
0=
b0000000000000000000000000000000000000000000000000000000000000000000000000000000000000000000000000000000000000000000000000000000000000000000000000000000000000000000000000000000000000000000000000000000000000000000000001000000000000000000000010000000010000000 H
#90500000
0!
0)
0;
#91000000
1!
0#
1)
0+
b0 .
b1010010 /
b001010010 0
11
1;
1=
#91500000
0!
0)
0;
#92000000
1!
1#
b0000000000001100000000100000000000000000000101000000001000000000000000000001110000000010000000000000000000100100000000100000000000000000001011000000001000000000000000000011010000000010000000000000000000111100000000000000000000000000000000000000000000000000 &
1)
1+
b1 .
b1010011 /
b001010011 0
01
1;
0=
b0000000000000000000000000000000000000000000000000000000000000000000000000000000000000000000000000000000000000000000000000000000000000000000000000000000000000000000000000000000000000000000000000000000000000000000000010000000000000000000000100000000100000000 H
#92500000
0!
0)
0;
#93000000
1!
0#
1)
0+
b0 .
b1010100 /
b001010100 0
11
1;
1=
#93500000
0!
0)
0;
#94000000
1!
1#
b0000000000011000000001000000000000000000001010000000010000000000000000000011100000000100000000000000000001001000000001000000000000000000010110000000010000000000000000000110100000000100000000000000000001111000000000000000000000000000000000000000000000000000 &
1)
1+
b1 .
b1010101 /
b001010101 0
01
1;
0=
b0000000000000000000000000000000000000000000000000000000000000000000000000000000000000000000000000000000000000000000000000000000000000000000000000000000000000000000000000000000000000000000000000000000000000000000000100000000000000000000001000000001000000000 H
#94500000
0!
0)
0;
#95000000
1!
0#
1)
0+
b0 .
b1010110 /
b001010110 0
11
1;
1=
#95500000
0!
0)
0;
#96000000
1!
1#
b0000000000110000000010000000000000000000010100000000100000000000000000000111000000001000000000000000000010010000000010000000000000000000101100000000100000000000000000001101000000001000000000000000000011110000000000000000000000000000000000000000000000000000 &
1)
1+
b1 .
b1010111 /
b001010111 0
01
1;
0=
b0000000000000000000000000000000000000000000000000000000000000000000000000000000000000000000000000000000000000000000000000000000000000000000000000000000000000000000000000000000000000000000000000000000000000000000001000000000000000000000010000000010000000000 H
#96500000
0!
0)
0;
#97000000
1!
0#
1)
0+
b0 .
b1011000 /
b001011000 0
11
1;
1=
#97500000
0!
0)
0;
#98000000
1!
1#
b0000000001100000000100000000000000000000101000000001000000000000000000001110000000010000000000000000000100100000000100000000000000000001011000000001000000000000000000011010000000010000000000000000000111100000000000000000000000000000000000000000000000000000 &
1)
1+
b1 .
b1011001 /
b001011001 0
01
1;
0=
b0000000000000000000000000000000000000000000000000000000000000000000000000000000000000000000000000000000000000000000000000000000000000000000000000000000000000000000000000000000000000000000000000000000000000000000010000000000000000000000100000000100000000000 H
#98500000
0!
0)
0;
#99000000
1!
0#
1)
0+
b0 .
b1011010 /
b001011010 0
11
1;
1=
#99500000
0!
0)
0;
